Fixed_Point_Unit.vcd
$date
	Tue Jul 02 21:29:25 2024
$end
$version
	Icarus Verilog
$end
$timescale
	1ns
$end
$scope module Fixed_Point_Unit_Testbench $end
$var wire 32 ! fpu_result [31:0] $end
$var wire 1 " fpu_ready $end
$var parameter 32 # CLK_PERIOD $end
$var reg 1 $ clk $end
$var reg 32 % operand_1 [31:0] $end
$var reg 32 & operand_2 [31:0] $end
$var reg 2 ' operation [1:0] $end
$var reg 1 ( reset $end
$scope module uut $end
$var wire 1 $ clk $end
$var wire 32 ) operand_1 [31:0] $end
$var wire 32 * operand_2 [31:0] $end
$var wire 2 + operation [1:0] $end
$var wire 1 ( reset $end
$var wire 32 , multiplierCircuitResult [31:0] $end
$var parameter 3 - ADD $end
$var parameter 32 . FBITS $end
$var parameter 3 / FIRSTMUL $end
$var parameter 3 0 FOURTHMUL $end
$var parameter 2 1 INITIAL $end
$var parameter 3 2 INITIALSTATE $end
$var parameter 3 3 SECONDMUL $end
$var parameter 2 4 SQRT $end
$var parameter 3 5 THIRDMUL $end
$var parameter 32 6 WIDTH $end
$var reg 32 7 final_result [31:0] $end
$var reg 32 8 iteration [31:0] $end
$var reg 16 9 multiplierCircuitInput1 [15:0] $end
$var reg 16 : multiplierCircuitInput2 [15:0] $end
$var reg 32 ; operand_1_temp [31:0] $end
$var reg 32 < partialProduct1 [31:0] $end
$var reg 32 = partialProduct2 [31:0] $end
$var reg 32 > partialProduct3 [31:0] $end
$var reg 32 ? partialProduct4 [31:0] $end
$var reg 64 @ product [63:0] $end
$var reg 1 A product_ready $end
$var reg 32 B radicand [31:0] $end
$var reg 1 " ready $end
$var reg 32 C result [31:0] $end
$var reg 32 D root [31:0] $end
$var reg 1 E root_ready $end
$var reg 3 F state [2:0] $end
$var reg 1 G state1 $end
$var reg 32 H temp_result [31:0] $end
$var reg 32 I temp_root [31:0] $end
$var reg 2 J two_bit [1:0] $end
$scope module multiplier_circuit $end
$var wire 16 K operand_1 [15:0] $end
$var wire 16 L operand_2 [15:0] $end
$var reg 32 M product [31:0] $end
$upscope $end
$upscope $end
$upscope $end
$enddefinitions $end
$comment Show the parameter values. $end
$dumpall
b100000 6
b11 5
b1 4
b10 3
b0 2
b0 1
b100 0
b1 /
b1010 .
b101 -
b100 #
$end
#0
$dumpvars
bx M
bx L
bx K
bx J
bx I
bx H
0G
b0 F
0E
b0 D
bz C
bx B
0A
b0 @
bx ?
bx >
bx =
bx <
bx ;
bx :
bx 9
bx 8
bx 7
bx ,
bx +
bx *
bx )
1(
bx '
bx &
bx %
1$
0"
bz !
$end
#2
0$
#4
1$
#6
0$
#8
1$
#10
0$
#12
0(
1$
#14
0$
#16
1$
#18
0$
#20
1"
b1111011000000 !
b1111011000000 C
b0 '
b0 +
b1000001000000 &
b1000001000000 *
b111010000000 %
b111010000000 )
1$
#22
0$
#24
0"
bz !
bz C
bz '
bz +
bz &
bz *
bz %
bz )
1$
#26
0$
#28
1"
b100010000000 !
b100010000000 C
b1 '
b1 +
b11000000000 &
b11000000000 *
b111010000000 %
b111010000000 )
1$
#30
0$
#32
0"
bz !
bz C
bz '
bz +
bz &
bz *
bz %
bz )
1$
#34
0$
#36
b0 !
b0 C
b10 '
b10 +
b11000000000 &
b11000000000 *
b111010000000 %
b111010000000 )
1$
#38
0$
#40
b10101110000000000000000 ,
b10101110000000000000000 M
b1 F
b0 ?
b0 >
b0 =
b0 <
b11000000000 :
b11000000000 L
b111010000000 9
b111010000000 K
1$
#42
0$
#44
b0 ,
b0 M
b10 F
b0 9
b0 K
b10101110000000000000000 <
1$
#46
0$
#48
b11 F
b0 :
b0 L
b111010000000 9
b111010000000 K
1$
#50
0$
#52
b100 F
b0 9
b0 K
1$
#54
0$
#56
b101 F
1$
#58
0$
#60
1"
b1010111000000 !
b1010111000000 C
1A
b0 F
b10101110000000000000000 @
1$
#62
0$
#64
0"
bz !
bz C
bz '
bz +
bz &
bz *
bz %
bz )
1$
#66
0$
#68
b0 !
b0 C
b11 '
b11 +
b11100110000000000 %
b11100110000000000 )
1$
#70
0$
#72
b0 7
1G
b10101 8
b1 I
b0 B
1$
#74
0$
#76
b10100 8
bx B
bx00 ;
b1 7
b11111111111111111111111111111111 H
1$
#78
0$
#80
b10011 8
b101 I
bx0000 ;
b11 7
bx H
1$
#82
0$
#84
b10010 8
b1101 I
bx000000 ;
b111 7
1$
#86
0$
#88
b10001 8
b11101 I
bx00000000 ;
b1111 7
1$
#90
0$
#92
b10000 8
b111101 I
bx0000000000 ;
b11111 7
1$
#94
0$
#96
b1111 8
b1111101 I
bx000000000000 ;
b111111 7
1$
#98
0$
#100
b1110 8
b11111101 I
bx00000000000000 ;
b1111111 7
1$
#102
0$
#104
b1101 8
b111111101 I
bx0000000000000000 ;
b11111111 7
1$
#106
0$
#108
b1100 8
b1111111101 I
bx000000000000000000 ;
b111111111 7
1$
#110
0$
#112
b1011 8
b11111111101 I
bx00000000000000000000 ;
b1111111111 7
1$
#114
0$
#116
b1010 8
b111111111101 I
bx0000000000000000000000 ;
b11111111111 7
1$
#118
0$
#120
b1001 8
b1111111111101 I
bx000000000000000000000000 ;
b111111111111 7
1$
#122
0$
#124
b1000 8
b11111111111101 I
bx00000000000000000000000000 ;
b1111111111111 7
1$
#126
0$
#128
b111 8
b111111111111101 I
bx0000000000000000000000000000 ;
b11111111111111 7
1$
#130
0$
#132
b110 8
b1111111111111101 I
bx000000000000000000000000000000 ;
b111111111111111 7
1$
#134
0$
#136
b101 8
b11111111111111101 I
b0 ;
b1111111111111111 7
1$
#138
0$
#140
b100 8
b111111111111111101 I
b0 J
b11111111111111111 7
1$
#142
0$
#144
b11 8
b1111111111111111101 I
b111111111111111111 7
1$
#146
0$
#148
b10 8
b11111111111111111101 I
b1111111111111111111 7
1$
#150
0$
#152
b1 8
b111111111111111111101 I
b11111111111111111111 7
1$
#154
0$
#156
b0 8
b1111111111111111111101 I
b111111111111111111111 7
1$
#158
0$
#160
1"
b111111111111111111111 !
b111111111111111111111 C
0G
1E
b111111111111111111111 D
1$
#162
0$
#164
b0 7
1G
b10101 8
b1 I
b0 B
1$
#166
0$
#168
b10100 8
b1 7
b11111111111111111111111111111111 H
1$
#170
0$
#172
0"
bz !
bz C
b10011 8
b101 I
b11 7
bz '
bz +
bz %
bz )
1$
#174
0$
#176
b10010 8
b1101 I
b111 7
b11111111111111111111111111111011 H
1$
#178
0$
#180
b10001 8
b11101 I
b1111 7
b11111111111111111111111111110011 H
1$
#182
0$
#184
b10000 8
b111101 I
b11111 7
b11111111111111111111111111100011 H
1$
#186
0$
#188
b1111 8
b1111101 I
b111111 7
b11111111111111111111111111000011 H
1$
#190
0$
#192
b1110 8
b11111101 I
b1111111 7
b11111111111111111111111110000011 H
1$
#194
0$
#196
b1101 8
b111111101 I
b11111111 7
b11111111111111111111111100000011 H
1$
#198
0$
#200
b1100 8
b1111111101 I
b111111111 7
b11111111111111111111111000000011 H
1$
#202
0$
#204
b1011 8
b11111111101 I
b1111111111 7
b11111111111111111111110000000011 H
1$
#206
0$
#208
b1010 8
b111111111101 I
b11111111111 7
b11111111111111111111100000000011 H
1$
#210
0$
#212
$dumpoff
bx M
bx L
bx K
bx J
bx I
bx H
xG
bx F
xE
bx D
bx C
bx B
xA
bx @
bx ?
bx >
bx =
bx <
bx ;
bx :
bx 9
bx 8
bx 7
bx ,
bx +
bx *
bx )
x(
bx '
bx &
bx %
x$
x"
bx !
$end
1$
