Fixed_Point_Unit.vcd
$date
	Tue Jul 02 23:32:18 2024
$end
$version
	Icarus Verilog
$end
$timescale
	1ns
$end
$scope module Fixed_Point_Unit_Testbench $end
$var wire 32 ! fpu_result [31:0] $end
$var wire 1 " fpu_ready $end
$var parameter 32 # CLK_PERIOD $end
$var reg 1 $ clk $end
$var reg 32 % operand_1 [31:0] $end
$var reg 32 & operand_2 [31:0] $end
$var reg 2 ' operation [1:0] $end
$var reg 1 ( reset $end
$scope module uut $end
$var wire 1 $ clk $end
$var wire 32 ) operand_1 [31:0] $end
$var wire 32 * operand_2 [31:0] $end
$var wire 2 + operation [1:0] $end
$var wire 1 ( reset $end
$var wire 32 , mul_result [31:0] $end
$var parameter 2 - CALCULATE $end
$var parameter 2 . DONE $end
$var parameter 32 / FBITS $end
$var parameter 2 0 IDLE $end
$var parameter 2 1 START $end
$var parameter 32 2 WIDTH $end
$var reg 32 3 P1 [31:0] $end
$var reg 32 4 P2 [31:0] $end
$var reg 32 5 P3 [31:0] $end
$var reg 32 6 P4 [31:0] $end
$var reg 34 7 ac [33:0] $end
$var reg 34 8 ac_next [33:0] $end
$var reg 5 9 iteration [4:0] $end
$var reg 16 : mul_op1 [15:0] $end
$var reg 16 ; mul_op2 [15:0] $end
$var reg 3 < mul_state [2:0] $end
$var reg 64 = product [63:0] $end
$var reg 1 > product_ready $end
$var reg 32 ? q [31:0] $end
$var reg 32 @ q_next [31:0] $end
$var reg 1 " ready $end
$var reg 32 A result [31:0] $end
$var reg 32 B root [31:0] $end
$var reg 1 C root_ready $end
$var reg 1 D sqrt_busy $end
$var reg 2 E sqrt_next_state [1:0] $end
$var reg 1 F sqrt_start $end
$var reg 2 G sqrt_state [1:0] $end
$var reg 34 H test_res [33:0] $end
$var reg 32 I x [31:0] $end
$var reg 32 J x_next [31:0] $end
$scope module multiplier $end
$var wire 16 K operand_1 [15:0] $end
$var wire 16 L operand_2 [15:0] $end
$var reg 32 M product [31:0] $end
$upscope $end
$upscope $end
$upscope $end
$enddefinitions $end
$comment Show the parameter values. $end
$dumpall
b100000 2
b1 1
b0 0
b1010 /
b11 .
b10 -
b100 #
$end
#0
$dumpvars
b0 M
b0 L
b0 K
bx J
bx I
bx H
b0 G
xF
b0 E
xD
0C
bx B
bz A
bx @
bx ?
0>
b0 =
b0 <
b0 ;
b0 :
b0 9
bx 8
bx 7
b0 6
b0 5
b0 4
b0 3
b0 ,
bx +
bx *
bx )
1(
bx '
bx &
bx %
1$
0"
bz !
$end
#2
0$
#4
1$
#6
0$
#8
1$
#10
0$
#12
0(
1$
#14
0$
#16
1$
#18
0$
#20
1"
b1111011000000 !
b1111011000000 A
b0 '
b0 +
b1000001000000 &
b1000001000000 *
b111010000000 %
b111010000000 )
1$
#22
0$
#24
0"
bz !
bz A
bz '
bz +
bz &
bz *
bz %
bz )
1$
#26
0$
#28
1"
b100010000000 !
b100010000000 A
b1 '
b1 +
b11000000000 &
b11000000000 *
b111010000000 %
b111010000000 )
1$
#30
0$
#32
0"
bz !
bz A
bz '
bz +
bz &
bz *
bz %
bz )
1$
#34
0$
#36
b10101110000000000000000 ,
b10101110000000000000000 M
b0 !
b0 A
b1 <
b11000000000 ;
b11000000000 L
b111010000000 :
b111010000000 K
b10 '
b10 +
b11000000000 &
b11000000000 *
b111010000000 %
b111010000000 )
1$
#38
0$
#40
b0 ,
b0 M
b10 <
b0 :
b0 K
b10101110000000000000000 3
1$
#42
0$
#44
b11 <
b0 ;
b0 L
b111010000000 :
b111010000000 K
1$
#46
0$
#48
b100 <
b0 :
b0 K
1$
#50
0$
#52
b101 <
1$
#54
0$
#56
1"
b1010111000000 !
b1010111000000 A
b0 <
1>
b10101110000000000000000 =
1$
#58
0$
#60
0"
bz !
bz A
bz '
bz +
bz &
bz *
bz %
bz )
1$
#62
0$
#64
0F
bx !
bx A
b1 E
b11 '
b11 +
b1101011110101 %
b1101011110101 )
1$
#66
0$
#68
1F
b10 E
b1 G
1$
#70
0$
#72
0F
b0 @
b0 8
b11010111101010000 J
b1111111111111111111111111111111111 H
b10 G
b0 7
b110101111010100 I
b0 ?
1D
1$
#74
0$
#76
b1101011110101000000 J
b11010111101010000 I
b1 9
1$
#78
0$
#80
b110101111010100000000 J
b1101011110101000000 I
b10 9
1$
#82
0$
#84
b11010111101010000000000 J
b110101111010100000000 I
b11 9
1$
#86
0$
#88
b1101011110101000000000000 J
b11010111101010000000000 I
b100 9
1$
#90
0$
#92
b110101111010100000000000000 J
b1101011110101000000000000 I
b101 9
1$
#94
0$
#96
b11010111101010000000000000000 J
b110101111010100000000000000 I
b110 9
1$
#98
0$
#100
b1101011110101000000000000000000 J
b11010111101010000000000000000 I
b111 9
1$
#102
0$
#104
b1 8
b10101111010100000000000000000000 J
b1101011110101000000000000000000 I
b1000 9
1$
#106
0$
#108
b1 @
b10 8
b10111101010000000000000000000000 J
b0 H
b1 7
b10101111010100000000000000000000 I
b1001 9
1$
#110
0$
#112
b10 @
b1010 8
b11110101000000000000000000000000 J
b1111111111111111111111111111111101 H
b1 ?
b10 7
b10111101010000000000000000000000 I
b1010 9
1$
#114
0$
#116
b101 @
b111 8
b11010100000000000000000000000000 J
b1 H
b10 ?
b1010 7
b11110101000000000000000000000000 I
b1011 9
1$
#118
0$
#120
b1010 @
b11111 8
b1010000000000000000000000000000 J
b1111111111111111111111111111110010 H
b101 ?
b111 7
b11010100000000000000000000000000 I
b1100 9
1$
#122
0$
#124
b10100 @
b1111101 8
b1000000000000000000000000000000 J
b1111111111111111111111111111110110 H
b1010 ?
b11111 7
b1010000000000000000000000000000 I
b1101 9
1$
#126
0$
#128
b101001 @
b10110001 8
b0 J
b101100 H
b10100 ?
b1111101 7
b1000000000000000000000000000000 I
b1110 9
1$
#130
0$
#132
b1010011 @
b110000 8
b1100 H
b101001 ?
b10110001 7
b0 I
b1111 9
1$
#134
0$
#136
b10100110 @
b11000000 8
b1111111111111111111111111011100011 H
b1010011 ?
b110000 7
b10000 9
1$
#138
0$
#140
b101001100 @
b1100000000 8
b1111111111111111111111111000100111 H
b10100110 ?
b11000000 7
b10001 9
1$
#142
0$
#144
b1010011000 @
b110000000000 8
b1111111111111111111111110111001111 H
b101001100 ?
b1100000000 7
b10010 9
1$
#146
0$
#148
b10100110001 @
b11001111100 8
b110011111 H
b1010011000 ?
b110000000000 7
b10011 9
1$
#150
0$
#152
b101001100010 @
b1100111110000 8
b1111111111111111111111000110110111 H
b11 E
b10100110001 ?
b11001111100 7
b10100 9
1$
#154
0$
#156
1"
b101001100010 !
b101001100010 A
b0 E
b101001100010 B
1C
0D
b11 G
1$
#158
0$
#160
0"
b1 E
0C
b0 G
1$
#162
0$
#164
1F
b10 E
b1 G
1$
#166
0$
#168
b0 @
b0zzzz 8
bz0000 J
bx H
bz !
bz A
b0 G
b0zz 7
bz00 I
b0 ?
b0 9
1D
b0 E
bz '
bz +
bz %
bz )
1$
#170
0$
#172
1$
#174
0$
#176
1$
#178
0$
#180
1$
#182
0$
#184
1$
#186
0$
#188
1$
#190
0$
#192
1$
#194
0$
#196
1$
#198
0$
#200
1$
#202
0$
#204
1$
#206
0$
#208
$dumpoff
bx M
bx L
bx K
bx J
bx I
bx H
bx G
xF
bx E
xD
xC
bx B
bx A
bx @
bx ?
x>
bx =
bx <
bx ;
bx :
bx 9
bx 8
bx 7
bx 6
bx 5
bx 4
bx 3
bx ,
bx +
bx *
bx )
x(
bx '
bx &
bx %
x$
x"
bx !
$end
1$
